{
    "en": {
        "dbqueryInput.description": "Description",
        "dbqueryInput.label": "Database",
        "dbqueryInput.name": "Name",
        "dbqueryInput.query": "Query",
        "dbqueryInput.tablefield": "Table field",
        "dbqueryInput.template": "Database query template",
        "dbqueryInput.type": "Type",
        "dbSelectionDialog.apply": "Apply",
        "dbSelectionDialog.deselect.all": "Deselect all",
        "dbSelectionDialog.field": "Field",
        "dbSelectionDialog.header": "Database selection",
        "dbSelectionDialog.select.all": "Select all",
        "dbSelectionDialog.topic": "Topic",
        "infosystemInput.description": "Description",
        "infosystemInput.label": "Infosystem",
        "infosystemInput.name": "Name",
        "infosystemInput.query": "Query",
        "infosystemInput.tablefield": "Table field",
        "infosystemInput.template": "Infosystem template",
        "infosystemInput.type": "Type",
        "pollingInputWithElements.checkbox.deactivated": "Deactivated",
        "pollingInputWithElements.error.nan": "Refresh input is not a number. Set value back to 1.",
        "pollingInputWithElements.title": "Refresh interval",
        "pollingInputWithElements.unit": "Unit",
        "pollingInputWithElements.value": "Value",
        "uiClickaction.button.group": "Button group",
        "uiClickaction.dashboard": "Dashboard",
        "uiClickaction.dashboard.description": "Open other dashboard",
        "uiClickaction.dashboard.title": "Dashboard",
        "uiClickaction.default": "Default",
        "uiClickaction.erp.command": "ERP command",
        "uiClickaction.erp.description": "Open in abas ERP",
        "uiClickaction.erp.title": "abas ERP",
        "uiClickaction.external.link": "External link",
        "uiClickaction.label": "Click action",
        "uiClickaction.link.description": "Open an external link",
        "uiClickaction.link.title": "External link",
        "uiClickaction.listings.description": "Update Listings Widget",
        "uiClickaction.listings.title": "Update listings",
        "uiClickaction.none.description": "No click action",
        "uiClickaction.none.title": "None",
        "uiClickaction.update.description": "Update connected widgets on dashboard",
        "uiClickaction.update.title": "Update dashboard",
        "uiCompanyselector.label": "abas ERP client",
        "uiCompanyselector.fixed": "Fixed",
        "uiDatasourceSwitcher.infosystem": "Infosystem",
        "uiDatasourceSwitcher.database": "Database",
        "uiDatasourceSwitcher.switcher.label": "Choose data source",
        "uiSubscriptions.subscribe.to": "Subscribe to",
        "uiDbSubscriptions.add": "Add",
        "uiDbSubscriptions.fieldname": "Field name",
        "uiDbSubscriptions.remove": "Remove",
        "uiDbSubscriptions.subscribe.to.database": "Subscribe to database",
        "uiDbSubscriptions.topics": "Topics",
        "uiErpCommandBuilder.type": "Type",
        "uiErpCommandBuilder.database": "Database",
        "uiErpCommandBuilder.erpCommand": "ERP command",
        "uiErpCommandBuilder.infosystem": "Infosystem",
        "uiErpCommandBuilder.typeCommand": "Type command",
        "uiErpCommandBuilder.commandBuilder": "Command Builder",
        "uiErpCommandBuilder.databaseObject": "Database object",
        "uiErpCommandBuilder.screenActions": "Screen actions",
        "uiErpCommandBuilder.query": "Query",
        "uiErpCommandBuilder.close": "Close",
        "uiErpCommandBuilder.options": "Options",
        "uiErpCommandBuilder.startNow": "Start directly",
        "uiErpCommandBuilder.action": "Action",
        "uiErpCommandBuilder.result": "Result",
        "uiErpCommandBuilder.tryout": "Try out",
        "uiErpCommandBuilder.subscriptionsAvailable": "Available subscriptions",
        "uiErpCommandBuilder.topics": "Topics",
        "uiErpCommandBuilder.fieldname": "Field name",
        "uiErpCommandBuilder.addToQuery": "Add to query",
        "uiErpCommandBuilder.generate": "Generate command",
        "uiIconPicker.changeIcon": "Change the selected icon",
        "uiOutputtable.align": "Alignment",
        "uiOutputtable.center.title": "Center",
        "uiOutputtable.concat.title": "Concat",
        "uiOutputtable.fieldname": "Field name",
        "uiOutputtable.function": "Function",
        "uiOutputtable.icon.title": "Icon",
        "uiOutputtable.left.title": "Left",
        "uiOutputtable.money.title": "Money (value,currency)",
        "uiOutputtable.publish": "Publish",
        "uiOutputtable.right.title": "Right",
        "uiOutputtable.selectofc": "Add output fields",
        "uiOutputtable.showHeadfields": "Header fields",
        "uiOutputtable.showTablefields": "Table fields",
        "uiOutputtable.title": "Title",
        "uiOutputtable.visible": "Visible sizes",
        "uiOutputtable.wideColumn": "Wide Column",
        "uiPublications.add": "Add",
        "uiPublications.addObject": "Add whole object",
        "uiPublications.fieldname": "Field name",
        "uiPublications.fieldvalue": "Field value",
        "uiSubscriptions.erptype": "Type",
        "uiSubscriptions.fieldname": "Field name",
        "uiSubscriptions.remove": "Remove",
        "uiSubscriptions.topics": "Topics",
        "uiIdentifier.userprimary": "User input (default)",
        "uiIdentifier.usersecondary": "User input (fallback)",
        "uiIdentifier.fieldprimary": "Field selection (default)",
        "uiIdentifier.fieldsecondary": "Field selection (not used)"
    },
    "de": {
        "dbqueryInput.description": "Beschreibung",
        "dbqueryInput.label": "Datenbank",
        "dbqueryInput.name": "Name",
        "dbqueryInput.query": "Abfrage",
        "dbqueryInput.tablefield": "Tabellenfeld",
        "dbqueryInput.template": "Datenbankabfragevorlage",
        "dbqueryInput.type": "Art",
        "dbSelectionDialog.apply": "Übernehmen",
        "dbSelectionDialog.deselect.all": "Auswahl aufheben",
        "dbSelectionDialog.field": "Feld",
        "dbSelectionDialog.header": "Datenbankauswahl",
        "dbSelectionDialog.select.all": "Alle auswählen",
        "dbSelectionDialog.topic": "Thema",
        "infosystemInput.description": "Beschreibung",
        "infosystemInput.label": "Infosystem",
        "infosystemInput.name": "Name",
        "infosystemInput.query": "Abfrage",
        "infosystemInput.tablefield": "Tabellenfeld",
        "infosystemInput.template": "Infosystemvorlage",
        "infosystemInput.type": "Art",
        "pollingInputWithElements.checkbox.deactivated": "Deaktiviert",
        "pollingInputWithElements.error.nan": "Aktualisierungseingabe ist keine Zahl. Wert auf 1 zurücksetzen.",
        "pollingInputWithElements.title": "Aktualisierungsintervall",
        "pollingInputWithElements.unit": "Einheit",
        "pollingInputWithElements.value": "Wert",
        "uiClickaction.button.group": "Button-Gruppe",
        "uiClickaction.dashboard": "Dashboard",
        "uiClickaction.dashboard.description": "Anderes Dashboard öffnen",
        "uiClickaction.dashboard.title": "Dashboard",
        "uiClickaction.default": "Standard",
        "uiClickaction.erp.command": "ERP-Kommando",
        "uiClickaction.erp.description": "In abas ERP öffnen",
        "uiClickaction.erp.title": "abas ERP",
        "uiClickaction.external.link": "Externer Link",
        "uiClickaction.label": "Klickaktion",
        "uiClickaction.link.description": "Externen Link öffnen",
        "uiClickaction.link.title": "Externer Link",
        "uiClickaction.listings.description": "Listings-Widget aktualisieren",
        "uiClickaction.listings.title": "Listen aktualisieren",
        "uiClickaction.none.description": "Keine Klickaktion",
        "uiClickaction.none.title": "Keine",
        "uiClickaction.update.description": "Verknüpfte Widgets auf Dashboard aktualisieren",
        "uiClickaction.update.title": "Dashboard aktualisieren",
        "uiCompanyselector.label": "abas ERP-Mandant",
        "uiCompanyselector.fixed": "Fixiert",
        "uiDatasourceSwitcher.database": "Datenbank",
        "uiDatasourceSwitcher.infosystem": "Infosystem",
        "uiDatasourceSwitcher.switcher.label": "Datenquelle auswählen",
        "uiDbSubscriptions.add": "Hinzufügen",
        "uiDbSubscriptions.fieldname": "Feldname",
        "uiDbSubscriptions.remove": "Entfernen",
        "uiDbSubscriptions.subscribe.to.database": "Datenbank abonnieren",
        "uiDbSubscriptions.topics": "Themen",
        "uiErpCommandBuilder.type": "Art",
        "uiErpCommandBuilder.database": "Datenbank",
        "uiErpCommandBuilder.erpCommand": "ERP-Kommando",
        "uiErpCommandBuilder.infosystem": "Infosystem",
        "uiErpCommandBuilder.typeCommand": "Tippkommando",
        "uiErpCommandBuilder.commandBuilder": "Command Builder",
        "uiErpCommandBuilder.databaseObject": "Datenbankobjekt",
        "uiErpCommandBuilder.screenActions": "Maskenaktionen",
        "uiErpCommandBuilder.query": "Abfrage",
        "uiErpCommandBuilder.close": "Schließen",
        "uiErpCommandBuilder.options": "Optionen",
        "uiErpCommandBuilder.startNow": "Autostart",
        "uiErpCommandBuilder.action": "Aktion",
        "uiErpCommandBuilder.result": "Ergebnis",
        "uiErpCommandBuilder.tryout": "Testen",
        "uiErpCommandBuilder.subscriptionsAvailable": "Verfügbare Abos",
        "uiErpCommandBuilder.topics": "Themen",
        "uiErpCommandBuilder.fieldname": "Feldname",
        "uiErpCommandBuilder.addToQuery": "Zu Abfrage hinzufügen",
        "uiErpCommandBuilder.generate": "Kommando erzeugen",
        "uiIconPicker.changeIcon": "Ausgewähltes Icon ändern",
        "uiOutputtable.align": "Ausrichtung",
        "uiOutputtable.center.title": "Mitte",
        "uiOutputtable.concat.title": "Zusammenführen",
        "uiOutputtable.fieldname": "Feldname",
        "uiOutputtable.function": "Funktion",
        "uiOutputtable.icon.title": "Icon",
        "uiOutputtable.left.title": "Links",
        "uiOutputtable.money.title": "Geld (Wert,Währung)",
        "uiOutputtable.publish": "Veröffentlichen",
        "uiOutputtable.right.title": "Rechts",
        "uiOutputtable.selectofc": "Ausgabefelder hinzufügen",
        "uiOutputtable.showHeadfields": "Kopffelder",
        "uiOutputtable.showTablefields": "Tabellenfelder",
        "uiOutputtable.title": "Titel",
        "uiOutputtable.visible": "Sichtbare Größen",
        "uiOutputtable.wideColumn": "Breite Spalte",
        "uiPublications.add": "Hinzufügen",
        "uiPublications.addObject": "Gesamtes Objekt hinzufügen",
        "uiPublications.fieldname": "Feldname",
        "uiPublications.fieldvalue": "Feldwert",
        "uiSubscriptions.erptype": "Art",
        "uiSubscriptions.fieldname": "Feldname",
        "uiSubscriptions.remove": "Entfernen",
        "uiSubscriptions.subscribe.to": "Abonnieren",
        "uiSubscriptions.topics": "Themen",
        "uiIdentifier.userprimary": "Benutzereingabe (Standard)",
        "uiIdentifier.usersecondary": "Benutzereingabe (Alternative)",
        "uiIdentifier.fieldprimary": "Feldauswahl (Standard)",
        "uiIdentifier.fieldsecondary": "Feldauswahl (nicht verwendet)"
    },
    "bg-bg": {
        "uiClickaction.dashboard.description": "Отваряне на друго Табло",
        "uiClickaction.dashboard.title": "Табло за управление",
        "uiClickaction.erp.description": "Отваряне в abas ERP",
        "uiClickaction.erp.title": "abas ERP",
        "uiClickaction.link.description": "Отваряне на външен линк",
        "uiClickaction.link.title": "Външен линк",
        "uiClickaction.listings.description": "Обновяване на елемент за списъци",
        "uiClickaction.listings.title": "Обновяване на списъци",
        "uiClickaction.none.description": "Няма действие при клик",
        "uiClickaction.none.title": "Нищо",
        "uiClickaction.update.description": "Обновяване на свързани към Таблото елементи",
        "uiClickaction.update.title": "Обновяване на табло",
        "uiIconPicker.changeIcon": "Промяна на избрана икона",
        "uiIdentifier.fieldprimary": "Избор на поле (по подразбиране)",
        "uiIdentifier.fieldsecondary": "Избор на поле (не е използвано)",
        "uiIdentifier.userprimary": "Въвеждане от потребител (по подразбиране)",
        "uiIdentifier.usersecondary": "Въвеждане от потребител (резервен)",
        "uiOutputtable.center.title": "Център",
        "uiOutputtable.concat.title": "Събрано",
        "uiOutputtable.icon.title": "Икона",
        "uiOutputtable.left.title": "Ляво",
        "uiOutputtable.money.title": "Пари (стойност, валута)",
        "uiOutputtable.right.title": "Дясно",
        "dbSelectionDialog.apply": "Прилагане",
        "dbSelectionDialog.deselect.all": "Премахни селекция",
        "dbSelectionDialog.field": "Поле",
        "dbSelectionDialog.header": "Избор на база данни",
        "dbSelectionDialog.select.all": "Избери всичко",
        "dbSelectionDialog.topic": "Заглавие",
        "dbqueryInput.description": "Описание",
        "dbqueryInput.name": "Име",
        "dbqueryInput.tablefield": "Поле от таблица",
        "dbqueryInput.type": "Вид",
        "dbqueryInput.label": "База данни",
        "dbqueryInput.query": "Селекция",
        "dbqueryInput.template": "Шаблон заявка към БД",
        "infosystemInput.description": "Описание",
        "infosystemInput.label": "Инфосистема",
        "infosystemInput.name": "Име",
        "infosystemInput.query": "Селекция",
        "infosystemInput.tablefield": "Поле от таблица",
        "infosystemInput.template": "Шаблон Инфосистема",
        "infosystemInput.type": "Вид",
        "pollingInputWithElements.checkbox.deactivated": "Изключено",
        "pollingInputWithElements.title": "Интервал за обновяване",
        "pollingInputWithElements.unit": "Единица",
        "pollingInputWithElements.value": "Стойност",
        "pollingInputWithElements.error.nan": "Нововъведената стойност не е число Стойността е върната на 1.",
        "uiCompanyselector.fixed": "Фиксиран",
        "uiCompanyselector.label": "abas ERP клиент",
        "uiDatasourceSwitcher.database": "База данни",
        "uiDatasourceSwitcher.infosystem": "Инфосистема",
        "uiDatasourceSwitcher.switcher.label": "Избор източник на данни",
        "uiDbSubscriptions.add": "Добавяне",
        "uiDbSubscriptions.fieldname": "Име на поле",
        "uiDbSubscriptions.remove": "Премахване",
        "uiDbSubscriptions.subscribe.to.database": "Абонирай се за база данни",
        "uiDbSubscriptions.topics": "Заглавия",
        "uiErpCommandBuilder.action": "Действие",
        "uiErpCommandBuilder.addToQuery": "Добави към заявка",
        "uiErpCommandBuilder.close": "Затваряне",
        "uiErpCommandBuilder.commandBuilder": "Конструктор за команди",
        "uiErpCommandBuilder.database": "База данни",
        "uiErpCommandBuilder.databaseObject": "Обект база данни",
        "uiErpCommandBuilder.erpCommand": "ERP команда",
        "uiErpCommandBuilder.fieldname": "Име на поле",
        "uiErpCommandBuilder.generate": "Генериране на команда",
        "uiErpCommandBuilder.result": "Резултат",
        "uiErpCommandBuilder.screenActions": "Действия на екрана",
        "uiErpCommandBuilder.subscriptionsAvailable": "Налични абонаменти",
        "uiErpCommandBuilder.topics": "Заглавия",
        "uiErpCommandBuilder.tryout": "Тествайте командата",
        "uiErpCommandBuilder.type": "Вид",
        "uiErpCommandBuilder.infosystem": "Инфосистема",
        "uiErpCommandBuilder.query": "Заявка",
        "uiErpCommandBuilder.startNow": "Директно започване",
        "uiErpCommandBuilder.options": "Опции",
        "uiErpCommandBuilder.typeCommand": "Вид команда",
        "uiOutputtable.align": "Подравняване",
        "uiOutputtable.fieldname": "Име на поле",
        "uiOutputtable.function": "Функция",
        "uiOutputtable.selectofc": "Добавете изходни полета",
        "uiOutputtable.showHeadfields": "Заглавни полета",
        "uiOutputtable.showTablefields": "Таблични полета",
        "uiOutputtable.title": "Заглавие",
        "uiOutputtable.visible": "Видими размери",
        "uiPublications.add": "Добавяне",
        "uiPublications.addObject": "Добавяне цял обект",
        "uiPublications.fieldname": "Име на поле",
        "uiPublications.fieldvalue": "Стойност на поле",
        "uiSubscriptions.erptype": "Вид",
        "uiSubscriptions.fieldname": "Име на поле",
        "uiSubscriptions.remove": "Премахване",
        "uiSubscriptions.subscribe.to": "Абониране за ",
        "uiSubscriptions.topics": "Заглавия",
        "uiClickaction.button.group": "Група бутони",
        "uiClickaction.default": "По подразбиране",
        "uiClickaction.dashboard": "Табло за управление",
        "uiClickaction.erp.command": "ERP команда",
        "uiClickaction.external.link": "Външен линк",
        "uiClickaction.label": "Действие при клик"
    }
}