{
    "plugins": {
        "xunit-reporter": {
            "output": "./test-results/testfile.xml"
        },
        "istanbub": {
            "dir": "./coverage",
            "reporters": ["text-summary", "lcov"],
            "include": [
                "**/*.html"
            ],
            "exclude": [
                "**/test/**"
            ],
            "thresholds": {
                "global": {
                    "statements": 5,
                    "branches": 5,
                    "functions": 5,
                    "lines": 5
                }
            }
        },
        "local": {
            "skipSeleniumInstall": true,
            "disabled": false,
            "browserOptions": {
                "chrome": [
                  "start-maximized",
                  "headless",
                  "disable-gpu",
                  "no-sandbox"
                ]
              }
        }
    },
    "activeBrowsers": [{
        "url": "http://localhost:4444/wd/hub",
        "browserName": "chrome"
    }]
}